^C:\USERS\MAGSHIMIM\DESKTOP\SHALEV_ETEDGY_REPO_ADVENCED_PROGRAMMING\SHALEV_ETEDGY_REPO_ADVENCED_PROGRAMMING\HW_12_THREADS_SYNC\EX_1_PRIMES\MAIN.CPP|C:\USERS\MAGSHIMIM\DESKTOP\SHALEV_ETEDGY_REPO_ADVENCED_PROGRAMMING\SHALEV_ETEDGY_REPO_ADVENCED_PROGRAMMING\HW_12_THREADS_SYNC\EX_1_PRIMES\THREADS.CPP
C:\USERS\MAGSHIMIM\DESKTOP\SHALEV_ETEDGY_REPO_ADVENCED_PROGRAMMING\SHALEV_ETEDGY_REPO_ADVENCED_PROGRAMMING\HW_12_THREADS_SYNC\EX_1_PRIMES\X64\DEBUG\VC141.PDB
C:\USERS\MAGSHIMIM\DESKTOP\SHALEV_ETEDGY_REPO_ADVENCED_PROGRAMMING\SHALEV_ETEDGY_REPO_ADVENCED_PROGRAMMING\HW_12_THREADS_SYNC\EX_1_PRIMES\X64\DEBUG\VC141.IDB
C:\USERS\MAGSHIMIM\DESKTOP\SHALEV_ETEDGY_REPO_ADVENCED_PROGRAMMING\SHALEV_ETEDGY_REPO_ADVENCED_PROGRAMMING\HW_12_THREADS_SYNC\EX_1_PRIMES\X64\DEBUG\THREADS.OBJ
C:\USERS\MAGSHIMIM\DESKTOP\SHALEV_ETEDGY_REPO_ADVENCED_PROGRAMMING\SHALEV_ETEDGY_REPO_ADVENCED_PROGRAMMING\HW_12_THREADS_SYNC\EX_1_PRIMES\X64\DEBUG\MAIN.OBJ
^C:\USERS\MAGSHIMIM\DESKTOP\SHALEV_ETEDGY_REPO_ADVENCED_PROGRAMMING\SHALEV_ETEDGY_REPO_ADVENCED_PROGRAMMING\HW_12_THREADS_SYNC\EX_1_PRIMES\THREADS.CPP
C:\USERS\MAGSHIMIM\DESKTOP\SHALEV_ETEDGY_REPO_ADVENCED_PROGRAMMING\SHALEV_ETEDGY_REPO_ADVENCED_PROGRAMMING\HW_12_THREADS_SYNC\EX_1_PRIMES\X64\DEBUG\VC141.PDB
C:\USERS\MAGSHIMIM\DESKTOP\SHALEV_ETEDGY_REPO_ADVENCED_PROGRAMMING\SHALEV_ETEDGY_REPO_ADVENCED_PROGRAMMING\HW_12_THREADS_SYNC\EX_1_PRIMES\X64\DEBUG\VC141.IDB
C:\USERS\MAGSHIMIM\DESKTOP\SHALEV_ETEDGY_REPO_ADVENCED_PROGRAMMING\SHALEV_ETEDGY_REPO_ADVENCED_PROGRAMMING\HW_12_THREADS_SYNC\EX_1_PRIMES\X64\DEBUG\THREADS.OBJ
^C:\USERS\MAGSHIMIM\DESKTOP\SHALEV_ETEDGY_REPO_ADVENCED_PROGRAMMING\SHALEV_ETEDGY_REPO_ADVENCED_PROGRAMMING\HW_12_THREADS_SYNC\EX_1_PRIMES\MAIN.CPP
C:\USERS\MAGSHIMIM\DESKTOP\SHALEV_ETEDGY_REPO_ADVENCED_PROGRAMMING\SHALEV_ETEDGY_REPO_ADVENCED_PROGRAMMING\HW_12_THREADS_SYNC\EX_1_PRIMES\X64\DEBUG\VC141.PDB
C:\USERS\MAGSHIMIM\DESKTOP\SHALEV_ETEDGY_REPO_ADVENCED_PROGRAMMING\SHALEV_ETEDGY_REPO_ADVENCED_PROGRAMMING\HW_12_THREADS_SYNC\EX_1_PRIMES\X64\DEBUG\VC141.IDB
C:\USERS\MAGSHIMIM\DESKTOP\SHALEV_ETEDGY_REPO_ADVENCED_PROGRAMMING\SHALEV_ETEDGY_REPO_ADVENCED_PROGRAMMING\HW_12_THREADS_SYNC\EX_1_PRIMES\X64\DEBUG\MAIN.OBJ
