^C:\USERS\MAGSHIMIM\DESKTOP\SHALEV_ETEDGY_REPO_ADVENCED_PROGRAMMING\SHALEV_ETEDGY_REPO_ADVENCED_PROGRAMMING\PYTHON_INTERPRETER\PYTHON_INTERPRETER\BOOLEAN.CPP
/c /ZI /nologo /W3 /WX- /diagnostics:classic /sdl /Od /Oy- /D _MBCS /Gm- /EHsc /RTC1 /MDd /GS /fp:precise /permissive- /Zc:wchar_t /Zc:forScope /Zc:inline /Fo"DEBUG\\" /Fd"DEBUG\VC141.PDB" /Gd /TP /analyze- /FC C:\USERS\MAGSHIMIM\DESKTOP\SHALEV_ETEDGY_REPO_ADVENCED_PROGRAMMING\SHALEV_ETEDGY_REPO_ADVENCED_PROGRAMMING\PYTHON_INTERPRETER\PYTHON_INTERPRETER\BOOLEAN.CPP
^C:\USERS\MAGSHIMIM\DESKTOP\SHALEV_ETEDGY_REPO_ADVENCED_PROGRAMMING\SHALEV_ETEDGY_REPO_ADVENCED_PROGRAMMING\PYTHON_INTERPRETER\PYTHON_INTERPRETER\HELPER.CPP
/c /ZI /nologo /W3 /WX- /diagnostics:classic /sdl /Od /Oy- /D _MBCS /Gm- /EHsc /RTC1 /MDd /GS /fp:precise /permissive- /Zc:wchar_t /Zc:forScope /Zc:inline /Fo"DEBUG\\" /Fd"DEBUG\VC141.PDB" /Gd /TP /analyze- /FC C:\USERS\MAGSHIMIM\DESKTOP\SHALEV_ETEDGY_REPO_ADVENCED_PROGRAMMING\SHALEV_ETEDGY_REPO_ADVENCED_PROGRAMMING\PYTHON_INTERPRETER\PYTHON_INTERPRETER\HELPER.CPP
^C:\USERS\MAGSHIMIM\DESKTOP\SHALEV_ETEDGY_REPO_ADVENCED_PROGRAMMING\SHALEV_ETEDGY_REPO_ADVENCED_PROGRAMMING\PYTHON_INTERPRETER\PYTHON_INTERPRETER\INDENTATIONEXCEPTION.CPP
/c /ZI /nologo /W3 /WX- /diagnostics:classic /sdl /Od /Oy- /D _MBCS /Gm- /EHsc /RTC1 /MDd /GS /fp:precise /permissive- /Zc:wchar_t /Zc:forScope /Zc:inline /Fo"DEBUG\\" /Fd"DEBUG\VC141.PDB" /Gd /TP /analyze- /FC C:\USERS\MAGSHIMIM\DESKTOP\SHALEV_ETEDGY_REPO_ADVENCED_PROGRAMMING\SHALEV_ETEDGY_REPO_ADVENCED_PROGRAMMING\PYTHON_INTERPRETER\PYTHON_INTERPRETER\INDENTATIONEXCEPTION.CPP
^C:\USERS\MAGSHIMIM\DESKTOP\SHALEV_ETEDGY_REPO_ADVENCED_PROGRAMMING\SHALEV_ETEDGY_REPO_ADVENCED_PROGRAMMING\PYTHON_INTERPRETER\PYTHON_INTERPRETER\INTEGER.CPP
/c /ZI /nologo /W3 /WX- /diagnostics:classic /sdl /Od /Oy- /D _MBCS /Gm- /EHsc /RTC1 /MDd /GS /fp:precise /permissive- /Zc:wchar_t /Zc:forScope /Zc:inline /Fo"DEBUG\\" /Fd"DEBUG\VC141.PDB" /Gd /TP /analyze- /FC C:\USERS\MAGSHIMIM\DESKTOP\SHALEV_ETEDGY_REPO_ADVENCED_PROGRAMMING\SHALEV_ETEDGY_REPO_ADVENCED_PROGRAMMING\PYTHON_INTERPRETER\PYTHON_INTERPRETER\INTEGER.CPP
^C:\USERS\MAGSHIMIM\DESKTOP\SHALEV_ETEDGY_REPO_ADVENCED_PROGRAMMING\SHALEV_ETEDGY_REPO_ADVENCED_PROGRAMMING\PYTHON_INTERPRETER\PYTHON_INTERPRETER\SEQUENCE.CPP
/c /ZI /nologo /W3 /WX- /diagnostics:classic /sdl /Od /Oy- /D _MBCS /Gm- /EHsc /RTC1 /MDd /GS /fp:precise /permissive- /Zc:wchar_t /Zc:forScope /Zc:inline /Fo"DEBUG\\" /Fd"DEBUG\VC141.PDB" /Gd /TP /analyze- /FC C:\USERS\MAGSHIMIM\DESKTOP\SHALEV_ETEDGY_REPO_ADVENCED_PROGRAMMING\SHALEV_ETEDGY_REPO_ADVENCED_PROGRAMMING\PYTHON_INTERPRETER\PYTHON_INTERPRETER\SEQUENCE.CPP
^C:\USERS\MAGSHIMIM\DESKTOP\SHALEV_ETEDGY_REPO_ADVENCED_PROGRAMMING\SHALEV_ETEDGY_REPO_ADVENCED_PROGRAMMING\PYTHON_INTERPRETER\PYTHON_INTERPRETER\STRING.CPP
/c /ZI /nologo /W3 /WX- /diagnostics:classic /sdl /Od /Oy- /D _MBCS /Gm- /EHsc /RTC1 /MDd /GS /fp:precise /permissive- /Zc:wchar_t /Zc:forScope /Zc:inline /Fo"DEBUG\\" /Fd"DEBUG\VC141.PDB" /Gd /TP /analyze- /FC C:\USERS\MAGSHIMIM\DESKTOP\SHALEV_ETEDGY_REPO_ADVENCED_PROGRAMMING\SHALEV_ETEDGY_REPO_ADVENCED_PROGRAMMING\PYTHON_INTERPRETER\PYTHON_INTERPRETER\STRING.CPP
^C:\USERS\MAGSHIMIM\DESKTOP\SHALEV_ETEDGY_REPO_ADVENCED_PROGRAMMING\SHALEV_ETEDGY_REPO_ADVENCED_PROGRAMMING\PYTHON_INTERPRETER\PYTHON_INTERPRETER\SYNTAXEXCEPTION.CPP
/c /ZI /nologo /W3 /WX- /diagnostics:classic /sdl /Od /Oy- /D _MBCS /Gm- /EHsc /RTC1 /MDd /GS /fp:precise /permissive- /Zc:wchar_t /Zc:forScope /Zc:inline /Fo"DEBUG\\" /Fd"DEBUG\VC141.PDB" /Gd /TP /analyze- /FC C:\USERS\MAGSHIMIM\DESKTOP\SHALEV_ETEDGY_REPO_ADVENCED_PROGRAMMING\SHALEV_ETEDGY_REPO_ADVENCED_PROGRAMMING\PYTHON_INTERPRETER\PYTHON_INTERPRETER\SYNTAXEXCEPTION.CPP
^C:\USERS\MAGSHIMIM\DESKTOP\SHALEV_ETEDGY_REPO_ADVENCED_PROGRAMMING\SHALEV_ETEDGY_REPO_ADVENCED_PROGRAMMING\PYTHON_INTERPRETER\PYTHON_INTERPRETER\TYPE.CPP
/c /ZI /nologo /W3 /WX- /diagnostics:classic /sdl /Od /Oy- /D _MBCS /Gm- /EHsc /RTC1 /MDd /GS /fp:precise /permissive- /Zc:wchar_t /Zc:forScope /Zc:inline /Fo"DEBUG\\" /Fd"DEBUG\VC141.PDB" /Gd /TP /analyze- /FC C:\USERS\MAGSHIMIM\DESKTOP\SHALEV_ETEDGY_REPO_ADVENCED_PROGRAMMING\SHALEV_ETEDGY_REPO_ADVENCED_PROGRAMMING\PYTHON_INTERPRETER\PYTHON_INTERPRETER\TYPE.CPP
^C:\USERS\MAGSHIMIM\DESKTOP\SHALEV_ETEDGY_REPO_ADVENCED_PROGRAMMING\SHALEV_ETEDGY_REPO_ADVENCED_PROGRAMMING\PYTHON_INTERPRETER\PYTHON_INTERPRETER\VOID.CPP
/c /ZI /nologo /W3 /WX- /diagnostics:classic /sdl /Od /Oy- /D _MBCS /Gm- /EHsc /RTC1 /MDd /GS /fp:precise /permissive- /Zc:wchar_t /Zc:forScope /Zc:inline /Fo"DEBUG\\" /Fd"DEBUG\VC141.PDB" /Gd /TP /analyze- /FC C:\USERS\MAGSHIMIM\DESKTOP\SHALEV_ETEDGY_REPO_ADVENCED_PROGRAMMING\SHALEV_ETEDGY_REPO_ADVENCED_PROGRAMMING\PYTHON_INTERPRETER\PYTHON_INTERPRETER\VOID.CPP
^C:\USERS\MAGSHIMIM\DESKTOP\SHALEV_ETEDGY_REPO_ADVENCED_PROGRAMMING\SHALEV_ETEDGY_REPO_ADVENCED_PROGRAMMING\PYTHON_INTERPRETER\PYTHON_INTERPRETER\NAMEERROREXCEPTION.CPP
/c /ZI /nologo /W3 /WX- /diagnostics:classic /sdl /Od /Oy- /D _MBCS /Gm- /EHsc /RTC1 /MDd /GS /fp:precise /permissive- /Zc:wchar_t /Zc:forScope /Zc:inline /Fo"DEBUG\\" /Fd"DEBUG\VC141.PDB" /Gd /TP /analyze- /FC C:\USERS\MAGSHIMIM\DESKTOP\SHALEV_ETEDGY_REPO_ADVENCED_PROGRAMMING\SHALEV_ETEDGY_REPO_ADVENCED_PROGRAMMING\PYTHON_INTERPRETER\PYTHON_INTERPRETER\NAMEERROREXCEPTION.CPP
^C:\USERS\MAGSHIMIM\DESKTOP\SHALEV_ETEDGY_REPO_ADVENCED_PROGRAMMING\SHALEV_ETEDGY_REPO_ADVENCED_PROGRAMMING\PYTHON_INTERPRETER\PYTHON_INTERPRETER\INTERPRETER.CPP
/c /ZI /nologo /W3 /WX- /diagnostics:classic /sdl /Od /Oy- /D _MBCS /Gm- /EHsc /RTC1 /MDd /GS /fp:precise /permissive- /Zc:wchar_t /Zc:forScope /Zc:inline /Fo"DEBUG\\" /Fd"DEBUG\VC141.PDB" /Gd /TP /analyze- /FC C:\USERS\MAGSHIMIM\DESKTOP\SHALEV_ETEDGY_REPO_ADVENCED_PROGRAMMING\SHALEV_ETEDGY_REPO_ADVENCED_PROGRAMMING\PYTHON_INTERPRETER\PYTHON_INTERPRETER\INTERPRETER.CPP
^C:\USERS\MAGSHIMIM\DESKTOP\SHALEV_ETEDGY_REPO_ADVENCED_PROGRAMMING\SHALEV_ETEDGY_REPO_ADVENCED_PROGRAMMING\PYTHON_INTERPRETER\PYTHON_INTERPRETER\PARSER.CPP
/c /ZI /nologo /W3 /WX- /diagnostics:classic /sdl /Od /Oy- /D _MBCS /Gm- /EHsc /RTC1 /MDd /GS /fp:precise /permissive- /Zc:wchar_t /Zc:forScope /Zc:inline /Fo"DEBUG\\" /Fd"DEBUG\VC141.PDB" /Gd /TP /analyze- /FC C:\USERS\MAGSHIMIM\DESKTOP\SHALEV_ETEDGY_REPO_ADVENCED_PROGRAMMING\SHALEV_ETEDGY_REPO_ADVENCED_PROGRAMMING\PYTHON_INTERPRETER\PYTHON_INTERPRETER\PARSER.CPP
