^C:\USERS\MAGSHIMIM\DESKTOP\SHALEV_ETEDGY_REPO_ADVENCED_PROGRAMMING\SHALEV_ETEDGY_REPO_ADVENCED_PROGRAMMING\HW_9_TREES_AND_TEMPLATES\HW_9_TREES_AND_TEMPLATES\BSNODE.CPP|C:\USERS\MAGSHIMIM\DESKTOP\SHALEV_ETEDGY_REPO_ADVENCED_PROGRAMMING\SHALEV_ETEDGY_REPO_ADVENCED_PROGRAMMING\HW_9_TREES_AND_TEMPLATES\HW_9_TREES_AND_TEMPLATES\MAIN.CPP
C:\USERS\MAGSHIMIM\DESKTOP\SHALEV_ETEDGY_REPO_ADVENCED_PROGRAMMING\SHALEV_ETEDGY_REPO_ADVENCED_PROGRAMMING\HW_9_TREES_AND_TEMPLATES\HW_9_TREES_AND_TEMPLATES\DEBUG\VC141.PDB
C:\USERS\MAGSHIMIM\DESKTOP\SHALEV_ETEDGY_REPO_ADVENCED_PROGRAMMING\SHALEV_ETEDGY_REPO_ADVENCED_PROGRAMMING\HW_9_TREES_AND_TEMPLATES\HW_9_TREES_AND_TEMPLATES\DEBUG\VC141.IDB
C:\USERS\MAGSHIMIM\DESKTOP\SHALEV_ETEDGY_REPO_ADVENCED_PROGRAMMING\SHALEV_ETEDGY_REPO_ADVENCED_PROGRAMMING\HW_9_TREES_AND_TEMPLATES\HW_9_TREES_AND_TEMPLATES\DEBUG\BSNODE.OBJ
^C:\USERS\MAGSHIMIM\DESKTOP\SHALEV_ETEDGY_REPO_ADVENCED_PROGRAMMING\SHALEV_ETEDGY_REPO_ADVENCED_PROGRAMMING\HW_9_TREES_AND_TEMPLATES\HW_9_TREES_AND_TEMPLATES\BSNODE.CPP
C:\USERS\MAGSHIMIM\DESKTOP\SHALEV_ETEDGY_REPO_ADVENCED_PROGRAMMING\SHALEV_ETEDGY_REPO_ADVENCED_PROGRAMMING\HW_9_TREES_AND_TEMPLATES\HW_9_TREES_AND_TEMPLATES\DEBUG\VC141.PDB
C:\USERS\MAGSHIMIM\DESKTOP\SHALEV_ETEDGY_REPO_ADVENCED_PROGRAMMING\SHALEV_ETEDGY_REPO_ADVENCED_PROGRAMMING\HW_9_TREES_AND_TEMPLATES\HW_9_TREES_AND_TEMPLATES\DEBUG\VC141.IDB
C:\USERS\MAGSHIMIM\DESKTOP\SHALEV_ETEDGY_REPO_ADVENCED_PROGRAMMING\SHALEV_ETEDGY_REPO_ADVENCED_PROGRAMMING\HW_9_TREES_AND_TEMPLATES\HW_9_TREES_AND_TEMPLATES\DEBUG\BSNODE.OBJ
^C:\USERS\MAGSHIMIM\DESKTOP\SHALEV_ETEDGY_REPO_ADVENCED_PROGRAMMING\SHALEV_ETEDGY_REPO_ADVENCED_PROGRAMMING\HW_9_TREES_AND_TEMPLATES\HW_9_TREES_AND_TEMPLATES\MAIN.CPP
C:\USERS\MAGSHIMIM\DESKTOP\SHALEV_ETEDGY_REPO_ADVENCED_PROGRAMMING\SHALEV_ETEDGY_REPO_ADVENCED_PROGRAMMING\HW_9_TREES_AND_TEMPLATES\HW_9_TREES_AND_TEMPLATES\DEBUG\VC141.PDB
C:\USERS\MAGSHIMIM\DESKTOP\SHALEV_ETEDGY_REPO_ADVENCED_PROGRAMMING\SHALEV_ETEDGY_REPO_ADVENCED_PROGRAMMING\HW_9_TREES_AND_TEMPLATES\HW_9_TREES_AND_TEMPLATES\DEBUG\VC141.IDB
C:\USERS\MAGSHIMIM\DESKTOP\SHALEV_ETEDGY_REPO_ADVENCED_PROGRAMMING\SHALEV_ETEDGY_REPO_ADVENCED_PROGRAMMING\HW_9_TREES_AND_TEMPLATES\HW_9_TREES_AND_TEMPLATES\DEBUG\MAIN.OBJ
