^C:\USERS\MAGSHIMIM\DESKTOP\SHALEV_ETEDGY_REPO_ADVENCED_PROGRAMMING\SHALEV_ETEDGY_REPO_ADVENCED_PROGRAMMING\HW_16_CLEAN_CODE\HW_16_CLEAN_CODE\DEBUG\DIGIT.OBJ|C:\USERS\MAGSHIMIM\DESKTOP\SHALEV_ETEDGY_REPO_ADVENCED_PROGRAMMING\SHALEV_ETEDGY_REPO_ADVENCED_PROGRAMMING\HW_16_CLEAN_CODE\HW_16_CLEAN_CODE\DEBUG\MAIN.OBJ
C:\USERS\MAGSHIMIM\DESKTOP\SHALEV_ETEDGY_REPO_ADVENCED_PROGRAMMING\SHALEV_ETEDGY_REPO_ADVENCED_PROGRAMMING\HW_16_CLEAN_CODE\DEBUG\KEEP_IT_SIMPLE.ILK
C:\USERS\MAGSHIMIM\DESKTOP\SHALEV_ETEDGY_REPO_ADVENCED_PROGRAMMING\SHALEV_ETEDGY_REPO_ADVENCED_PROGRAMMING\HW_16_CLEAN_CODE\DEBUG\KEEP_IT_SIMPLE.EXE
C:\USERS\MAGSHIMIM\DESKTOP\SHALEV_ETEDGY_REPO_ADVENCED_PROGRAMMING\SHALEV_ETEDGY_REPO_ADVENCED_PROGRAMMING\HW_16_CLEAN_CODE\DEBUG\KEEP_IT_SIMPLE.PDB
