^C:\USERS\MAGSHIMIM\DESKTOP\SHALEV_ETEDGY_REPO_ADVENCED_PROGRAMMING\SHALEV_ETEDGY_REPO_ADVENCED_PROGRAMMING\HW_4_INHERITENCE\EX_2_LIBRARY\FILESTREAM.CPP|C:\USERS\MAGSHIMIM\DESKTOP\SHALEV_ETEDGY_REPO_ADVENCED_PROGRAMMING\SHALEV_ETEDGY_REPO_ADVENCED_PROGRAMMING\HW_4_INHERITENCE\EX_2_LIBRARY\OUTSTREAM.CPP
C:\USERS\MAGSHIMIM\DESKTOP\SHALEV_ETEDGY_REPO_ADVENCED_PROGRAMMING\SHALEV_ETEDGY_REPO_ADVENCED_PROGRAMMING\HW_4_INHERITENCE\EX_2_LIBRARY\DEBUG\EX_2_LIBRARY.PDB
C:\USERS\MAGSHIMIM\DESKTOP\SHALEV_ETEDGY_REPO_ADVENCED_PROGRAMMING\SHALEV_ETEDGY_REPO_ADVENCED_PROGRAMMING\HW_4_INHERITENCE\EX_2_LIBRARY\DEBUG\EX_2_LIBRARY.IDB
C:\USERS\MAGSHIMIM\DESKTOP\SHALEV_ETEDGY_REPO_ADVENCED_PROGRAMMING\SHALEV_ETEDGY_REPO_ADVENCED_PROGRAMMING\HW_4_INHERITENCE\EX_2_LIBRARY\DEBUG\OUTSTREAM.OBJ
C:\USERS\MAGSHIMIM\DESKTOP\SHALEV_ETEDGY_REPO_ADVENCED_PROGRAMMING\SHALEV_ETEDGY_REPO_ADVENCED_PROGRAMMING\HW_4_INHERITENCE\EX_2_LIBRARY\DEBUG\FILESTREAM.OBJ
^C:\USERS\MAGSHIMIM\DESKTOP\SHALEV_ETEDGY_REPO_ADVENCED_PROGRAMMING\SHALEV_ETEDGY_REPO_ADVENCED_PROGRAMMING\HW_4_INHERITENCE\EX_2_LIBRARY\FILESTREAM.CPP
C:\USERS\MAGSHIMIM\DESKTOP\SHALEV_ETEDGY_REPO_ADVENCED_PROGRAMMING\SHALEV_ETEDGY_REPO_ADVENCED_PROGRAMMING\HW_4_INHERITENCE\EX_2_LIBRARY\DEBUG\EX_2_LIBRARY.PDB
^C:\USERS\MAGSHIMIM\DESKTOP\SHALEV_ETEDGY_REPO_ADVENCED_PROGRAMMING\SHALEV_ETEDGY_REPO_ADVENCED_PROGRAMMING\HW_4_INHERITENCE\EX_2_LIBRARY\OUTSTREAM.CPP
C:\USERS\MAGSHIMIM\DESKTOP\SHALEV_ETEDGY_REPO_ADVENCED_PROGRAMMING\SHALEV_ETEDGY_REPO_ADVENCED_PROGRAMMING\HW_4_INHERITENCE\EX_2_LIBRARY\DEBUG\EX_2_LIBRARY.PDB
